# Blender MTL File: 'head project.blend'
# Material Count: 7

newmtl Material
Ns 96.078431
Ka 1.000000 1.000000 1.000000
Kd 0.640000 0.024465 0.036935
Ks 0.500000 0.500000 0.500000
Ke 0.000000 0.000000 0.000000
Ni 1.000000
d 1.000000
illum 2

newmtl gums
Ns 96.078431
Ka 1.000000 1.000000 1.000000
Kd 0.358382 0.136640 0.142047
Ks 0.500000 0.500000 0.500000
Ke 0.000000 0.000000 0.000000
Ni 1.000000
d 1.000000
illum 2

newmtl side_of_ehad
Ns 96.078431
Ka 1.000000 1.000000 1.000000
Kd 0.640000 0.331530 0.319101
Ks 0.500000 0.148053 0.022863
Ke 0.000000 0.000000 0.000000
Ni 1.000000
d 1.000000
illum 2

newmtl teeth
Ns 96.078431
Ka 1.000000 1.000000 1.000000
Kd 0.537955 0.480154 0.212817
Ks 0.500000 0.500000 0.500000
Ke 0.000000 0.000000 0.000000
Ni 1.000000
d 1.000000
illum 2

newmtl test_head
Ns 3.921569
Ka 1.000000 1.000000 1.000000
Kd 0.800000 0.800000 0.800000
Ks 0.013725 0.013725 0.013725
Ke 0.000000 0.000000 0.000000
Ni 1.000000
d 1.000000
illum 2
map_Kd textures\\young_lightskinned_male_diffuse2.png

newmtl tongue
Ns 96.078431
Ka 1.000000 1.000000 1.000000
Kd 0.246194 0.022088 0.014627
Ks 0.500000 0.500000 0.500000
Ke 0.000000 0.000000 0.000000
Ni 1.000000
d 1.000000
illum 2

newmtl tongue_side
Ns 96.078431
Ka 1.000000 1.000000 1.000000
Kd 1.000000 0.000000 0.003733
Ks 0.500000 0.500000 0.500000
Ke 0.000000 0.000000 0.000000
Ni 1.000000
d 1.000000
illum 2
